{
    "invokerPackage": "ApiBundle",
    "bundleName": "Api",
    "bundleAlias": "api",
    "variableNamingConvention": "camelCase",
    "modelPackage": "",
    "apiPackage": "",
    "phpLegacySupport": "false",
    "gitUserId": "openapi",
    "gitRepoId": "server-bundle"
  }
  